resposta.vcd
$date
  Sun Jul 25 20:21:16 2021
$end
$version
  GHDL v0
$end
$timescale
  1 fs
$end
$var reg 1 ! test_out $end
$var reg 1 " clk $end
$var reg 1 # resetn $end
$var reg 1 $ outputgerador $end
$scope module utg $end
$var reg 1 % clk $end
$var reg 1 & resetn $end
$var reg 1 ' seq $end
$var reg 9 ( package1[0:8] $end
$var reg 9 ) package2[0:8] $end
$var reg 9 * package3[0:8] $end
$upscope $end
$scope module utd $end
$var reg 1 + clk $end
$var reg 1 , resetn $end
$var reg 1 - input $end
$var reg 8 . seqdec[0:7] $end
$var reg 1 / valid_out $end
$var reg 8 0 seqdecaux[0:7] $end
$var reg 5 1 c[0:4] $end
$upscope $end
$enddefinitions $end
#0
U!
1"
U#
0$
1%
U&
0'
b001001110 (
b001101100 )
b000000000 *
1+
U,
0-
bUUUUUUUU .
U/
bUUUUUUUU 0
bUUUUU 1
#250000000000
0"
0%
0+
#500000000000
1"
1%
1+
#750000000000
0"
0%
0+
#1000000000000
1"
1$
1%
1'
1+
1-
#1250000000000
0"
0%
0+
#1500000000000
1"
1%
1+
#1750000000000
0"
0%
0+
#2000000000000
1"
0$
1%
0'
1+
0-
#2250000000000
0"
0%
0+
#2500000000000
1"
1%
1+
b00110 1
#2750000000000
0"
0%
0+
#3000000000000
1"
1$
1%
1'
1+
1-
b0UUUUUUU .
0/
b0UUUUUUU 0
#3250000000000
0"
0%
0+
#3500000000000
1"
0$
1%
0'
1+
0-
b01UUUUUU .
b01UUUUUU 0
#3750000000000
0"
0%
0+
#4000000000000
1"
1%
1+
b011UUUUU .
b011UUUUU 0
#4250000000000
0"
0%
0+
#4500000000000
1"
1$
1%
1'
1+
1-
b0111UUUU .
b0111UUUU 0
#4750000000000
0"
0%
0+
#5000000000000
1"
1%
1+
b01111UUU .
b01111UUU 0
#5250000000000
0"
0%
0+
#5500000000000
1"
1%
1+
b011110UU .
b011110UU 0
#5750000000000
0"
0%
0+
#6000000000000
1"
0$
1%
0'
1+
0-
b0111100U .
b0111100U 0
#6250000000000
0"
0%
0+
#6500000000000
1"
1$
1%
1'
1+
1-
b01111000 .
1/
b01111000 0
#6750000000000
0"
0%
0+
#7000000000000
1"
1%
1+
#7250000000000
0"
0%
0+
#7500000000000
1"
0$
1%
0'
1+
0-
b11011 1
#7750000000000
0"
0%
0+
#8000000000000
1"
1$
1%
1'
1+
1-
b11111000 .
0/
b11111000 0
#8250000000000
0"
0%
0+
#8500000000000
1"
1%
1+
b10111000 .
b10111000 0
#8750000000000
0"
0%
0+
#9000000000000
1"
0$
1%
0'
1+
0-
#9250000000000
0"
0%
0+
#9500000000000
1"
1$
1%
1'
1+
1-
#9750000000000
0"
0%
0+
#10000000000000
1"
1%
1+
#10250000000000
0"
0%
0+
#10500000000000
1"
0$
1%
0'
1+
0-
#10750000000000
0"
0%
0+
#11000000000000
1"
1$
1%
1'
1+
1-
#11250000000000
0"
0%
0+
#11500000000000
1"
1%
1+
#11750000000000
0"
0%
0+
#12000000000000
1"
0$
1%
0'
1+
0-
#12250000000000
0"
0%
0+
#12500000000000
1"
1%
1+
#12750000000000
0"
0%
0+
#13000000000000
1"
1$
1%
1'
1+
1-
b11111000 .
b11111000 0
#13250000000000
0"
0%
0+
#13500000000000
1"
1%
1+
#13750000000000
0"
0%
0+
#14000000000000
1"
0$
1%
0'
1+
0-
b11101000 .
b11101000 0
#14250000000000
0"
0%
0+
#14500000000000
1"
1$
1%
1'
1+
1-
b00110 1
#14750000000000
0"
0%
0+
#15000000000000
1"
1%
1+
#15250000000000
0"
0%
0+
#15500000000000
1"
0$
1%
0'
1+
0-
b11011 1
#15750000000000
0"
0%
0+
#16000000000000
1"
1%
1+
#16250000000000
0"
0%
0+
#16500000000000
1"
1%
1+
#16750000000000
0"
0%
0+
#17000000000000
1"
1%
1+
b11001000 .
b11001000 0
#17250000000000
0"
0%
0+
#17500000000000
1"
1%
1+
b11011000 .
b11011000 0
#17750000000000
0"
0%
0+
#18000000000000
1"
1%
1+
#18250000000000
0"
0%
0+
#18500000000000
1"
1%
1+
#18750000000000
0"
0%
0+
#19000000000000
1"
1%
1+
#19250000000000
0"
0%
0+
#19500000000000
1"
1%
1+
1/
